179
3
12345689
2789
5
678
789
4
679
79
2
8
3479
1
467
5
67
3679
4
6
579
3789
3789
78
3789
1
2
369
7
369
5
4
2
19
8
169
589
1
259
6
78
3
2479
57
4579
568
4
256
1
78
9
27
3
567
2
5
3467
347
37
147
1347
9
8
37
9
1
3478
2
4578
6
57
3457
37
8
347
3479
6
1457
1347
2
13457
